{
  "api_url": "https://rest.vsemayki.ru",
  "swagger_url": "http://rest.vsemayki.ru/doc/api.json",
  "allure_log": true,
  "allure_dir": "C:/Users/v.ilkov/PycharmProjects/api-autotest/allure_log",
  "allure_html": "C:/Users/v.ilkov/PycharmProjects/api-autotest/allure_html",
  "flow": 20,
  "debug": false,
  "structure": true,
  "functional": false,
  "coating": true
}