{
  "api_url": "https://rest.vsemayki.ru",
  "swagger_url": "rest.vsemayki.ru/doc/api.json",
  "allure_log": true,
  "allure_dir": "/home/vsemayki/projects/allure-report",
  "allure_html": "/home/vsemayki/projects/allure-html",
  "flow": 20,
  "debug": false,
  "structure": true,
  "functional": true,
  "coating": true
}